…
city_or
```

    ## # A tibble: 47 × 4
    ## # Groups:   city_state [47]
    ##    city_state         OR conf.low conf.high
    ##    <chr>           <dbl>    <dbl>     <dbl>
    ##  1 Albuquerque, NM 1.77     0.825     3.76 
    ##  2 Atlanta, GA     1.00     0.680     1.46 
    ##  3 Baltimore, MD   0.426    0.324     0.558
    ##  4 Baton Rouge, LA 0.381    0.204     0.684
    ##  5 Birmingham, AL  0.870    0.571     1.31 
    ##  6 Boston, MA      0.674    0.353     1.28 
    ##  7 Buffalo, NY     0.521    0.288     0.936
    ##  8 Charlotte, NC   0.884    0.551     1.39 
    ##  9 Chicago, IL     0.410    0.336     0.501
    ## 10 Cincinnati, OH  0.400    0.231     0.667
    ## # ℹ 37 more rows
…
        b_prcp <- tmp %>%
          filter(term == "prcp") %>%
          pull(estimate)
        
        b_tmin / b_prcp
      }
    )
  ) %>%
  select(strap_id, r_sq, beta_ratio)

boot_results
```

    ## # A tibble: 5,000 × 3
    ##    strap_id  r_sq beta_ratio
    ##    <chr>    <dbl>      <dbl>
    ##  1 0001     0.913      -237.
    ##  2 0002     0.921      -424.
    ##  3 0003     0.905     -1492.
    ##  4 0004     0.921      -364.
    ##  5 0005     0.906      -461.
    ##  6 0006     0.915      -634.
    ##  7 0007     0.919      -808.
    ##  8 0008     0.905     -2435.
    ##  9 0009     0.917      -723.
    ## 10 0010     0.916      -344.
    ## # ℹ 4,990 more rows
…
